ro\linca\grpc\MedicationPlanServiceGrpc$MedicationPlanServiceBaseDescriptorSupplier.class
ro\linca\grpc\MedicationPlan$MedicationTakenResponse$1.class
ro\linca\grpc\MedicationPlan$MedicationNotTakenResponse$Builder.class
ro\linca\grpc\MedicationPlan$EmptyRequest$1.class
ro\linca\grpc\MedicationPlan$GetPlanResponse.class
ro\linca\grpc\MedicationPlan$EmptyRequestOrBuilder.class
ro\linca\grpc\MedicationPlan$GetPlanResponse$Builder.class
ro\linca\grpc\MedicationPlan$MedicationTakenResponse.class
ro\linca\grpc\MedicationPlanServiceGrpc$MethodHandlers.class
ro\linca\grpc\MedicationPlan$GetPlanResponseOrBuilder.class
ro\linca\grpc\MedicationPlan.class
ro\linca\connection\ConnectionFactory.class
ro\linca\grpc\MedicationPlan$EmptyRequest$Builder.class
ro\linca\grpc\MedicationPlan$MedicationTakenResponse$Builder.class
ro\linca\grpc\MedicationPlan$1.class
ro\linca\grpc\MedicationPlan$GetPlanResponse$1.class
ro\linca\grpc\MedicationPlanServiceGrpc$MedicationPlanServiceBlockingStub.class
ro\linca\grpc\MedicationPlan$MedicationTakenRequestOrBuilder.class
ro\linca\grpc\MedicationPlan$MedicationTakenRequest$1.class
ro\linca\grpc\MedicationPlan$MedicationTakenRequest.class
ro\linca\grpc\MedicationPlanServiceGrpc$MedicationPlanServiceMethodDescriptorSupplier.class
ro\linca\grpc\MedicationPlanServiceGrpc$MedicationPlanServiceImplBase.class
ro\linca\service\MedicationPlanService.class
ro\linca\grpc\MedicationPlanServiceGrpc.class
ro\linca\grpc\MedicationPlan$MedicationNotTakenResponseOrBuilder.class
ro\linca\grpc\MedicationPlan$MedicationTakenRequest$Builder.class
ro\linca\grpc\MedicationPlan$MedicationNotTakenResponse$1.class
ro\linca\connection\MedicationPlanDao.class
ro\linca\grpc\MedicationPlan$MedicationNotTakenResponse.class
ro\linca\grpc\MedicationPlanServiceGrpc$1.class
ro\linca\server\GRPCServer.class
ro\linca\grpc\MedicationPlan$MedicationTakenResponseOrBuilder.class
ro\linca\grpc\MedicationPlanServiceGrpc$MedicationPlanServiceFileDescriptorSupplier.class
ro\linca\grpc\MedicationPlanServiceGrpc$MedicationPlanServiceFutureStub.class
ro\linca\grpc\MedicationPlan$EmptyRequest.class
ro\linca\grpc\MedicationPlanServiceGrpc$MedicationPlanServiceStub.class
